// Jest Snapshot v1, https://goo.gl/fbAQLP

exports[`Message should contain a button with text, and an intro paragraph 1`] = `
<div
  class="ui segment"
>
  <p>
    This is tight
  </p>
  <button
    class="ui red button"
  >
    <i
      aria-hidden="true"
      class="thumbs up icon"
    />
     
    Cool
     
  </button>
</div>
`;
